Variable: catXS_MET 

BkgFunctions: ExpPoly2  ExpPoly2  
max(S)/Sref: -0.00046330935251798563  0.0005151079136690648  



Variable: catXS_nbjet 

BkgFunctions: ExpPoly2  ExpPoly2  ExpPoly2  
max(S)/Sref: -0.00046618705035971224  -0.00031223021582733814  -0.0005179856115107913  



Variable: m_jj_30 

BkgFunctions: ExpPoly2  ExpPoly2  ExpPoly2  ExpPoly2  Exponential  
max(S)/Sref: -0.0005402877697841727  -0.0004618705035971223  0.0006201438848920862  0.00040575539568345323  -0.0023597122302158272  



Variable: rel_pT_y1 

BkgFunctions: ExpPoly2  ExpPoly2  ExpPoly3  ExpPoly2  Bern3  ExpPoly3  ExpPoly2  ExpPoly2  ExpPoly2  
max(S)/Sref: -0.0007769784172661871  -0.0008417266187050359  -0.001  0.0006654676258992805  0.00038776978417266186  -0.0006748201438848922  0.00014532374100719423  -0.0007086330935251799  -0.00026115107913669063  



Variable: pT_yy_JV_50 

BkgFunctions: Bern5  ExpPoly2  ExpPoly2  ExpPoly2  ExpPoly2  ExpPoly2  ExpPoly2  Bern3  Exponential  Bern3  ExpPoly2  
max(S)/Sref: -0.0007043165467625898  -0.0005510791366906475  -0.001748201438848921  -0.0006525179856115108  0.00026618705035971225  -0.00042877697841726617  -0.00041798561151079133  -0.0006748201438848922  -0.00019280575539568347  0.0002237410071942446  -0.00046978417266187053  



Variable: rel_pT_y2 

BkgFunctions: ExpPoly2  ExpPoly2  ExpPoly2  Pow  Pow  Pow  Pow  Pow  Exponential  
max(S)/Sref: -0.0005633093525179856  0.0011654676258992804  -0.00032949640287769787  0.0005086330935251799  0.000585611510791367  0.000523021582733813  -0.00014820143884892087  0.00032733812949640285  -0.00019928057553956835  



Variable: pT_yyj_30_vs_pT_yy 

BkgFunctions: ExpPoly2  ExpPoly2  Exponential  Pow  ExpPoly2  Exponential  Pow  ExpPoly2  Exponential  Exponential  
max(S)/Sref: -0.0005482014388489209  -0.0003374100719424461  -0.00040575539568345323  0.00029712230215827337  -0.000537410071942446  0.0003539568345323741  0.00024316546762589926  -0.00037625899280575544  0.0011223021582733813  -0.0001539568345323741  



Variable: sumTau_yyj_30 

BkgFunctions: ExpPoly2  ExpPoly2  ExpPoly2  ExpPoly2  ExpPoly2  ExpPoly2  
max(S)/Sref: -0.00047050359712230217  0.0001935251798561151  -0.00040215827338129493  0.00016690647482014387  -0.00026115107913669063  -0.00021870503597122302  



Variable: pT_yy_JV_30 

BkgFunctions: Bern5  ExpPoly2  ExpPoly2  ExpPoly2  ExpPoly2  ExpPoly2  ExpPoly2  ExpPoly2  Bern4  
max(S)/Sref: -0.0006863309352517985  -0.0009568345323741008  -0.0012805755395683455  -0.0007115107913669065  0.00029064748201438847  0.00038848920863309355  -0.0005115107913669065  0.0005446043165467626  0.0002618705035971223  



Variable: N_j_30 

BkgFunctions: ExpPoly2  ExpPoly2  ExpPoly2  ExpPoly2  
max(S)/Sref: -0.0005482014388489209  -0.0006532374100719424  -0.00022230215827338129  0.0003827338129496403  



Variable: VBF_abs_Zepp 

BkgFunctions: Exponential  Pow  Exponential  
max(S)/Sref: 9.712230215827339e-05  0.00012661870503597123  -0.0005719424460431655  



Variable: maxTau_yyj_30 

BkgFunctions: ExpPoly2  ExpPoly2  ExpPoly2  ExpPoly2  Exponential  Exponential  
max(S)/Sref: -0.0005043165467625899  -0.0005266187050359712  -0.00013884892086330934  -0.00033093525179856114  -0.0005474820143884893  -0.00059568345323741  



Variable: Dphi_j_j_30_signed 

BkgFunctions: ExpPoly2  ExpPoly2  Exponential  Exponential  ExpPoly2  
max(S)/Sref: -0.0005302158273381295  0.00020431654676258992  -0.00048489208633093524  -0.0005906474820143885  -0.00036906474820143885  



Variable: VBF_pT_j1_30 

BkgFunctions: Exponential  Exponential  
max(S)/Sref: -0.00025899280575539566  -9.712230215827339e-05  



Variable: pT_yyjj_30 

BkgFunctions: ExpPoly2  ExpPoly2  ExpPoly2  ExpPoly2  Exponential  
max(S)/Sref: -0.0005402877697841727  -0.0006942446043165468  0.0007151079136690648  0.0005410071942446043  0.000541726618705036  



Variable: pT_yy_JV_40 

BkgFunctions: Pow  Bern4  ExpPoly2  ExpPoly2  ExpPoly2  ExpPoly2  ExpPoly2  ExpPoly2  ExpPoly2  Bern3  
max(S)/Sref: 0.0009568345323741008  0.0006294964028776978  -0.001748201438848921  -0.0006510791366906476  0.00037841726618705035  -0.00015755395683453237  -0.0005338129496402878  -0.0003489208633093525  0.0005848920863309353  -0.0008776978417266186  



Variable: m_yyj_30 

BkgFunctions: ExpPoly2  ExpPoly3  Exponential  Pow  Pow  Exponential  Exponential  
max(S)/Sref: -0.0005057553956834532  -0.0008489208633093526  0.0005791366906474821  0.00015539568345323743  0.0006741007194244604  -0.000318705035971223  8.201438848920862e-05  



Variable: rel_sumpT_y_y_vs_rel_DpT_y_y 

BkgFunctions: ExpPoly2  ExpPoly2  ExpPoly2  ExpPoly2  ExpPoly2  Pow  ExpPoly2  ExpPoly3  
max(S)/Sref: -0.0009280575539568345  -0.0006762589928057555  -0.0010071942446043165  0.0002618705035971223  -0.00027338129496402874  -2.9280575539568346e-05  0.00030287769784172663  -0.000662589928057554  



Variable: pT_yy 

BkgFunctions: Bern5  ExpPoly2  ExpPoly2  ExpPoly2  ExpPoly2  ExpPoly2  ExpPoly2  ExpPoly2  ExpPoly2  Bern3  Bern3  ExpPoly2  Pow  Exponential  Exponential  Exponential  Exponential  Pow  Exponential  Exponential  
max(S)/Sref: -0.0006870503597122303  -0.0005496402877697841  -0.0016690647482014388  -0.0005115107913669065  0.00027050359712230213  0.00022230215827338129  -0.00043741007194244603  -0.0003633093525179856  -0.00026834532374100717  0.0003143884892086331  0.00045467625899280577  -0.00019568345323741008  0.00047194244604316545  -0.00033093525179856114  -0.00021510791366906478  0.00015683453237410073  0.00020863309352517985  0.00011438848920863309  -0.0023237410071942446  0.0037553956834532375  



Variable: Dphi_yy_jj_30 

BkgFunctions: ExpPoly2  ExpPoly2  ExpPoly2  ExpPoly2  
max(S)/Sref: -0.0005302158273381295  0.000576978417266187  -0.00033884892086330937  -0.00022661870503597122  



Variable: catXS_VBF 

BkgFunctions: ExpPoly2  Exponential  
max(S)/Sref: -0.00047194244604316545  -0.00023021582733812951  



Variable: yAbs_yy 

BkgFunctions: ExpPoly2  ExpPoly2  ExpPoly2  ExpPoly2  ExpPoly2  ExpPoly2  ExpPoly2  ExpPoly2  ExpPoly2  ExpPoly3  
max(S)/Sref: 0.0006762589928057555  -0.0004741007194244604  -0.00022517985611510792  -0.00027769784172661867  -0.00023381294964028778  -0.0003676258992805756  -0.0008489208633093526  -0.0002647482014388489  -0.0004949640287769784  -0.00025035971223021585  



Variable: maxTau_yyj_30_vs_pT_yy 

BkgFunctions: ExpPoly2  ExpPoly2  Exponential  Exponential  ExpPoly2  Exponential  Exponential  Exponential  Exponential  Exponential  
max(S)/Sref: -0.0005035971223021583  -0.0005935251798561152  -0.0005223021582733813  2.5971223021582734e-05  -0.00035035971223021584  -0.0002460431654676259  -0.000497841726618705  -0.0001302158273381295  -0.0006906474820143884  0.00011654676258992806  



Variable: VBF_Dphi_j_j_30_signed 

BkgFunctions: Exponential  Exponential  Exponential  Pow  
max(S)/Sref: -0.00028129496402877697  -0.00021942446043165465  0.00038561151079136694  0.0003517985611510791  



Variable: pT_j1_30 

BkgFunctions: ExpPoly2  ExpPoly2  Exponential  Exponential  ExpPoly2  Exponential  
max(S)/Sref: -0.0005050359712230215  -0.0005532374100719425  -0.00041798561151079133  -0.00021654676258992805  -0.0004949640287769784  -0.000576978417266187  



Variable: yAbs_yy_vs_pT_yy 

BkgFunctions: ExpPoly2  Exponential  Exponential  ExpPoly2  Exponential  Pow  ExpPoly2  Exponential  Exponential  ExpPoly3  Exponential  ExpPoly2  
max(S)/Sref: -0.00046978417266187053  -0.00016834532374100718  -0.000160431654676259  -0.000702158273381295  0.00021942446043165465  0.0002093525179856115  -0.0005093525179856116  -0.0003194244604316547  5.5035971223021587e-05  -0.0006079136690647481  -0.00017913669064748204  -0.0006424460431654676  



Variable: HT_30 

BkgFunctions: ExpPoly2  ExpPoly2  ExpPoly2  ExpPoly2  ExpPoly2  Pow  
max(S)/Sref: -0.0005474820143884893  -0.0007482014388489208  -0.00012014388489208633  0.00015683453237410073  -0.0002827338129496403  0.0007913669064748202  



Variable: catXS_ttH 

BkgFunctions: ExpPoly2  Exponential  
max(S)/Sref: -0.00045035971223021583  0.0001539568345323741  



Variable: catXS_lepton 

BkgFunctions: ExpPoly2  Pow  
max(S)/Sref: -0.0004589928057553957  0.0001410071942446043  



Variable: VBF_pT_yyjj_30 

BkgFunctions: Exponential  Exponential  
max(S)/Sref: -0.00025611510791366906  -0.00019136690647482014  



Variable: isPassed 

BkgFunctions: ExpPoly2  
max(S)/Sref: -0.00042877697841726617  



Variable: pT_yy_JV_60 

BkgFunctions: Bern5  ExpPoly2  ExpPoly2  ExpPoly2  ExpPoly2  ExpPoly2  ExpPoly2  ExpPoly2  Exponential  Bern5  Bern4  Pow  
max(S)/Sref: -0.0007007194244604317  -0.0005834532374100719  -0.0016618705035971223  -0.0006258992805755395  0.00020359712230215828  -0.0005410071942446043  -0.0004215827338129497  -0.0004877697841726619  -0.00014460431654676257  -0.00038561151079136694  0.000637410071942446  0.0003863309352517986  



Variable: pT_yyj_30 

BkgFunctions: ExpPoly2  ExpPoly2  ExpPoly2  ExpPoly2  ExpPoly2  
max(S)/Sref: -0.0005474820143884893  -0.000476978417266187  -0.00039928057553956833  0.0005812949640287769  -0.00045971223021582734  



Variable: VBF_pT_j1_30_vs_Dphi_j_j_30 

BkgFunctions: Exponential  Exponential  Exponential  Exponential  Exponential  Exponential  
max(S)/Sref: -0.000718705035971223  0.0002237410071942446  -0.0003798561151079137  -0.00032446043165467624  0.00025035971223021585  -9.85611510791367e-05  



